[
    {
        "name"        : "id",
        "dbType"      : "integer,true,true",
        "htmlType"    : null,
        "validations" : null,
        "searchable"  : true,
        "fillable"    : false,
        "primary"     : true,
        "inForm"      : false,
        "inIndex"     : true
    },
    {
        "name"        : "name",
        "dbType"      : "string",
        "htmlType"    : "text",
        "validations" : "required",
        "searchable"  : true,
        "fillable"    : true,
        "inForm"      : true,
        "inIndex"     : true
    },
    {
        "name"        : "slug",
        "dbType"      : "string",
        "htmlType"    : "text",
        "validations" : null,
        "searchable"  : true,
        "fillable"    : true,
        "inForm"      : true,
        "inIndex"     : true
    },
    {
        "name"        : "description",
        "dbType"      : "text",
        "htmlType"    : "textarea",
        "validations" : null,
        "searchable"  : false,
        "fillable"    : true,
        "inForm"      : true,
        "inIndex"     : false
    },
    {
        "name"        : "parent_id",
        "dbType"      : "integer:unsigned",
        "htmlType"    : "number",
        "validations" : null,
        "inForm"      : false,
        "inIndex"     : true
    },
    {
        "name"        : "_lft",
        "dbType"      : "integer:unsigned",
        "htmlType"    : "number",
        "validations" : null,
        "inForm"      : false,
        "inIndex"     : true
    },
    {
        "name"        : "_rgt",
        "dbType"      : "integer:unsigned",
        "htmlType"    : "number",
        "validations" : null,
        "inForm"      : false,
        "inIndex"     : true
    },
    {
        "name"        : "creator_id",
        "dbType"      : "integer:unsigned",
        "htmlType"    : "number",
        "validations" : null,
        "fillable"    : true,
        "inForm"      : true,
        "inIndex"     : true
    },
    {
        "name"        : "created_at",
        "dbType"      : "timestamp",
        "htmlType"    : "",
        "validations" : null,
        "searchable"  : true,
        "fillable"    : false,
        "inForm"      : false,
        "inIndex"     : true
    },
    {
        "name"        : "updated_at",
        "dbType"      : "timestamp",
        "htmlType"    : "",
        "validations" : null,
        "searchable"  : true,
        "fillable"    : false,
        "inForm"      : false,
        "inIndex"     : true
    },
    {
        "name"     : "documents",
        "type"     : "relation",
        "relation" : "1tm,Document"
    },
    {
        "name"     : "creator",
        "type"     : "relation",
        "relation" : "mt1,User,creator_id"
    }
]